%YAML 1.1
%TAG !u! tag:unity3d.com,2011:
--- !u!1 &6017964726127289822
GameObject:
  m_ObjectHideFlags: 0
  m_CorrespondingSourceObject: {fileID: 0}
  m_PrefabInstance: {fileID: 0}
  m_PrefabAsset: {fileID: 0}
  serializedVersion: 6
  m_Component:
  - component: {fileID: 6017964726127289820}
  - component: {fileID: 6017964726127289823}
  m_Layer: 0
  m_Name: GameMaster
  m_TagString: Untagged
  m_Icon: {fileID: 0}
  m_NavMeshLayer: 0
  m_StaticEditorFlags: 0
  m_IsActive: 1
--- !u!4 &6017964726127289820
Transform:
  m_ObjectHideFlags: 0
  m_CorrespondingSourceObject: {fileID: 0}
  m_PrefabInstance: {fileID: 0}
  m_PrefabAsset: {fileID: 0}
  m_GameObject: {fileID: 6017964726127289822}
  m_LocalRotation: {x: 0, y: 0, z: 0, w: 1}
  m_LocalPosition: {x: 0, y: 0, z: 0}
  m_LocalScale: {x: 1, y: 1, z: 1}
  m_Children: []
  m_Father: {fileID: 0}
  m_RootOrder: 0
  m_LocalEulerAnglesHint: {x: 0, y: 0, z: 0}
--- !u!114 &6017964726127289823
MonoBehaviour:
  m_ObjectHideFlags: 0
  m_CorrespondingSourceObject: {fileID: 0}
  m_PrefabInstance: {fileID: 0}
  m_PrefabAsset: {fileID: 0}
  m_GameObject: {fileID: 6017964726127289822}
  m_Enabled: 1
  m_EditorHideFlags: 0
  m_Script: {fileID: 11500000, guid: d7f9ffbfa2fad0945903d052604fa9f4, type: 3}
  m_Name: 
  m_EditorClassIdentifier: 
  player: {fileID: 0}
  stageBlocks:
  - {fileID: 8097785031765475674, guid: 9dadc9b856014ef4987398a3826fe133, type: 3}
  - {fileID: 8097785031765475674, guid: 414ee71eebe10344f962e936c0c4d9d2, type: 3}
  - {fileID: 8097785031765475674, guid: aded970f512e9374788408374e6cd9d2, type: 3}
  - {fileID: 8097785031765475674, guid: 3b04f7a8a25d5dd48a22238c630d21d9, type: 3}
  - {fileID: 8097785031765475674, guid: 663323ca461ac2548a022c6499290f72, type: 3}
  - {fileID: 8097785031765475674, guid: 0806f4a8c4d16d24c9f3f819c697a3e2, type: 3}
  - {fileID: 8097785031765475674, guid: 79904a64545b90b43be7bbea0512bf75, type: 3}
  - {fileID: 8097785031765475674, guid: 078104356e53d384d9b0acc02da7e238, type: 3}
  - {fileID: 8097785031765475674, guid: 090a89532281a1b41b72ef417af11bf0, type: 3}
  - {fileID: 8097785031765475674, guid: 23278fbb8cb0d59429c194eff0a3648d, type: 3}
  - {fileID: 8097785031765475674, guid: 8da0ff88fec384f479c274055daa1545, type: 3}
  - {fileID: 8097785031765475674, guid: 29a34125108174442b6fe2f4d2eb7550, type: 3}
  currentIndex: 0
  score: 0
  scoreRate: 3
  scoreText: {fileID: 0}
  gameOverAnimators:
  - {fileID: 0}
  - {fileID: 0}
  - {fileID: 0}
  - {fileID: 0}
  retryImage: {fileID: 0}
  fadeInImage: {fileID: 0}
  newRecord: {fileID: 0}
  canScore: 1
  nextTargetScore: 75
  amoutOfScoreToTarget: 75
  timeIncrease: 0.05
  maxTimeIncrease: 1.5
  info: {fileID: 0}
